# Created by Octave 8.2.0, Thu May 18 02:18:22 2023 IST <vishal@Vishals-Mac.local>
# name: email
# type: sq_string
# elements: 1
# length: 27
vishal.govind2098@gmail.com


# name: token
# type: sq_string
# elements: 1
# length: 16
8oAIfGmaDlF9njh1


